Predicting IMDB Ratings of The Office Episodes Based on Main Cast Sentiment Scores
…
First, in order to determine whether I believed this was a worthy research question to follow, I created two initial plots. These plots graph the mean IMDB rating of each season, and also Jim’s mean sentimentr score for each season. Comparing these two, one can easily a somewhat similar trend with higher highs early on and a dip near the end. This led me to believe that these scores are in fact correlated, making sentiment scores a valuable predictor of IMDB rating.

Table 1:

Table of Total Character Lines

# A tibble: 773 × 2
   character_name total_appearances
   <chr>                      <int>
 1 Michael                    10921
 2 Dwight                      6847
 3 Jim                         6303
 4 Pam                         5031
 5 Andy                        3754
 6 Angela                      1569
 7 Kevin                       1564
 8 Erin                        1440
 9 Oscar                       1368
10 Ryan                        1198
# ℹ 763 more rows
…
